{
    "sfdc": {
        "client_id": "xxxxxx",
        "client_secret": "xxxxxx"
    },
    "jwtsecret": "EVIDLY-j1cyWwhUggLkPsfEXgtZZ90",
    "basicAuth": {
        "username": "admin",
		"password": "Ev!dly4321"
    },
    "dataFolderName": "data",
    "mongoUri": "mongodb://evidly:3viDlyylDiv3@mongo:27017/evidly?authSource=admin",
    "google": {
        "web": {
            "client_id": "xxxxxx",
            "project_id": "xxxxxx",
            "auth_uri": "https://accounts.google.com/o/oauth2/auth",
            "token_uri": "https://oauth2.googleapis.com/token",
            "auth_provider_x509_cert_url": "https://www.googleapis.com/oauth2/v1/certs",
            "client_secret": "xxxxxx",
            "redirect_uris": [
                "https://xxxxxx"
            ]
        }
    }
}