[{
    "Priority": 1,
    "Group": "Sales",
    "Category": "Customers",
    "Activity": "Invoice Status Inquiry",
    "Description": "Respond to a query. Assign to an account or to the opportunity in question ",
    "Assignment": "Account or Opportunity",
    "tags": "t19"
},
{
    "Priority": 2,
    "Group": "Sales",
    "Category": "Customers",
    "Activity": "Maintenance Delivery Inquiry",
    "Description": "Respond to a query. Assign to an account or to the opportunity in question",
    "Assignment": "Account or Opportunity"
},
{
    "Priority": 3,
    "Group": "Sales",
    "Category": "Customers",
    "Activity": "Travel - Account or Opportunity",
    "Description": "Travel to a customer meeting, or a prep meeting related to an account or opportunity.  Use this wherever the travel is to an activity with an account or opportunity assignment.  ",
    "Assignment": "Account or Opportunity"
},
{
    "Priority": 4,
    "Group": "Sales",
    "Category": "Customers",
    "Activity": "Customer Meeting",
    "Description": "Any meeting with customer / prospect - may be a discovery, qualification, demonstrations, sizing & architecture discussions, solutioning discussions, or workshops. Assign to an account if an opportunity does not already exist.  ",
    "Assignment": "Account or Opportunity"
},
{
    "Priority": 5,
    "Group": "Sales",
    "Category": "Partners",
    "Activity": "Invoice Status Inquiry",
    "Description": "Respond to a query. Assign to an account or to the opportunity in question ",
    "Assignment": "Account or Opportunity"
},
{
    "Priority": 6,
    "Group": "Sales",
    "Category": "Partners",
    "Activity": "Maintenance Delivery Inquiry",
    "Description": "Respond to a query. Assign to an account or to the opportunity in question",
    "Assignment": "Account or Opportunity"
},
{
    "Priority": 7,
    "Group": "Sales",
    "Category": "Partners",
    "Activity": "Partner Meeting",
    "Description": "Any meeting with partner - could be territory review, QBR ",
    "Assignment": "Account"
},
{
    "Priority": 8,
    "Group": "Sales",
    "Category": "Internal",
    "Activity": "Forecast Call",
    "Description": "Preparation for and attendance to a Forecast Call",
    "Assignment": "None"
},
{
    "Priority": 9,
    "Group": "Sales",
    "Category": "Internal",
    "Activity": "CRM Hygiene",
    "Description": "Pipeline cleanup etc.",
    "Assignment": "None"
},
{
    "Priority": 10,
    "Group": "Sales",
    "Category": "Internal",
    "Activity": "Sales Meeting",
    "Description": "Regular Meeting, Staff Meeting etc",
    "Assignment": "None"
},
{
    "Priority": 11,
    "Group": "Sales",
    "Category": "Internal",
    "Activity": "Pipe Review Meetings",
    "Description": "TBD",
    "Assignment": "None"
},
{
    "Priority": 12,
    "Group": "Sales",
    "Category": "Internal",
    "Activity": "Internal Account or Opportunity Planning",
    "Description": "Time spent on internal account or opportunity planning, strategy and reviews",
    "Assignment": "Account or Opportunity"
},
{
    "Priority": 13,
    "Group": "Sales",
    "Category": "Internal",
    "Activity": "Technical / Product Enablement",
    "Description": "TBD",
    "Assignment": "None"
},
{
    "Priority": 14,
    "Group": "Sales",
    "Category": "Internal",
    "Activity": "Sales / Soft Skills Enablement",
    "Description": "TBD",
    "Assignment": "None"
},
{
    "Priority": 15,
    "Group": "Sales",
    "Category": "Sales Process",
    "Activity": "Prospecting",
    "Description": "includes establishing contact via Social Media, Mail, Cold Calls, verification and creation of prospect contact details in CRM",
    "Assignment": "None"
},
{
    "Priority": 16,
    "Group": "Sales",
    "Category": "Sales Process",
    "Activity": "Value Proposition Creation",
    "Description": "TBD",
    "Assignment": "Opportunity"
},
{
    "Priority": 17,
    "Group": "Sales",
    "Category": "Sales Process",
    "Activity": "Solution Presentation",
    "Description": "TBD",
    "Assignment": "Opportunity"
},
{
    "Priority": 18,
    "Group": "Sales",
    "Category": "Sales Process",
    "Activity": "Proof of Concept",
    "Description": "TBD",
    "Assignment": "Opportunity"
},
{
    "Priority": 19,
    "Group": "Sales",
    "Category": "Sales Process",
    "Activity": "Test License",
    "Description": "TBD",
    "Assignment": "Opportunity"
},
{
    "Priority": 20,
    "Group": "Sales",
    "Category": "Sales Process",
    "Activity": "Contract Negotiation",
    "Description": "TBD",
    "Assignment": "Opportunity"
},
{
    "Priority": 21,
    "Group": "Sales",
    "Category": "Sales Process",
    "Activity": "Quotes and Approvals",
    "Description": "TBD",
    "Assignment": "Opportunity"
},
{
    "Priority": 22,
    "Group": "Sales",
    "Category": "Sales Process",
    "Activity": "Customer Success",
    "Description": "Escalation handling, Synch with CSM organization etc.",
    "Assignment": "Account or Opportunity"
},
{
    "Priority": 23,
    "Group": "Sales",
    "Category": "Marketing",
    "Activity": "Campaign Target Selection",
    "Description": "TBD",
    "Assignment": "None"
},
{
    "Priority": 24,
    "Group": "Sales",
    "Category": "Marketing",
    "Activity": "Content Preparation",
    "Description": "TBD",
    "Assignment": "None"
},
{
    "Priority": 25,
    "Group": "Sales",
    "Category": "Marketing",
    "Activity": "Webinar / Customer Day",
    "Description": "TBD",
    "Assignment": "None"
},
{
    "Priority": 26,
    "Group": "Sales",
    "Category": "Marketing",
    "Activity": "Reference Work",
    "Description": "TBD",
    "Assignment": "Account"
}
]