[{
  "Priority": 1,
  "Group": "Presales",
  "Category": "Customers",
  "Activity": "RFX and Proposals",
  "Description": "Working on or qualifying a proposal, RFx, ITT etc.  Assign to an account if an opportunity does not already exist.  ",
  "Assignment": "Account or Opportunity",
  "Mapped from": "RFX",
  "tags": "t29,t30,t31,t32"
},
{
  "Priority": 2,
  "Group": "Presales",
  "Category": "Customers",
  "Activity": "Customer meeting Preparation/Followup",
  "Description": "Time spent on preparing for a customer / prospect facing meeting (including custom demo build) and time spent on follow up actions from the actual customer / prospect meeting. ",
  "Assignment": "Account or Opportunity",
  "tags": "t27,t28"
},
{
  "Priority": 3,
  "Group": "Presales",
  "Category": "Customers",
  "Activity": "Customer Facing POC",
  "Description": "Any work involved in a customer / prospect POC - scoping, preparation, and presentation back to customer.",
  "Assignment": "Opportunity",
  "Mapped from": "SIB/DIB; SIB (Paid); Demo Build / POC / SIB; Other Technical Proof Activity; Technical Proof",
  "tags": "t23,t24,t25,t26"
},
{
  "Priority": 5,
  "Group": "Presales",
  "Category": "Customers",
  "Activity": "Customer Meeting",
  "Description": "Any meeting with customer / prospect - may be a discovery, qualification, demonstrations, sizing & architecture discussions, solutioning discussions, or workshops. Assign to an account if an opportunity does not already exist.  ",
  "Assignment": "Account or Opportunity",
  "Mapped from": "First Meeting; Demo; Sizing / Architecture / Solution Definition - Workshop; Solution Development; Value Engineering Qualification; Value Engineering Customer Pitch; Value Engineering Customer Activity; OEM Recruitment",
  "tags": "t18,t19,t20,t21,t22"
},
{
  "Priority": 4,
  "Group": "Presales",
  "Category": "Customers",
  "Activity": "Travel - Account or Opportunity",
  "Description": "Travel to a customer meeting, or a prep meeting related to an account or opportunity.  Use this wherever the travel is to an activity with an account or opportunity assignment.  ",
  "Assignment": "Account or Opportunity",
  "Mapped from": "Travel",
  "tags": "t20,t19"
},
{
  "Priority": 6,
  "Group": "Presales",
  "Category": "Customers",
  "Activity": "Internal Account or Opportunity Planning",
  "Description": "Time spent on internal account or opportunity planning, strategy and reviews",
  "Assignment": "Account or Opportunity",
  "Mapped from": "Sales Support; General Opportunity Support",
  "tags": "t33,t34"
},
{
  "Priority": 7,
  "Group": "Presales",
  "Category": "Customers",
  "Activity": "General Post Sales Activity",
  "Description": "Handovers to Consulting, Customer Success related activities, helping customer with support cases and escalations",
  "Assignment": "Account",
  "Mapped from": "Account Planning; Account Development; General Account Support; Reference work; Handover; Customer Support; Education Services; Expert Services; After Sale Activity; Consulting - associated to a customer",
  "tags": "t35,t36,t37,t38"
},
{
  "Priority": 8,
  "Group": "Presales",
  "Category": "Customers",
  "Activity": "Partner Opportunity Support",
  "Description": "Supporting a Partner on a specific opportunity (NOTE: available in both Customer/Partner sections)",
  "Assignment": "Opportunity",
  "Mapped from": "Partner/SI/OEM Opportunity Support",
  "tags": "t20,t19,t29,t33"
},
{
  "Priority": 9,
  "Group": "Presales",
  "Category": "Partners",
  "Activity": "Partner Enablement",
  "Description": "All single partner onboarding and enablement activity that is NOT related to a specific opportunity",
  "Assignment": "Partner",
  "Mapped from": "Partner Enablement; Partner Onboarding; Partner Support; Partner Training; SI Enablement; OEM Enablement",
  "tags": "t5,t20,t19"
},
{
  "Priority": 10,
  "Group": "Presales",
  "Category": "Partners",
  "Activity": "Multiple Partner Enablement",
  "Description": "Any workshops or other partner enablement activity covering multiple partners in the same activity",
  "Assignment": "None",
  "Mapped from": "Partner Enablement (Multi)",
  "tags": "t20,t19"
},
{
  "Priority": 11,
  "Group": "Presales",
  "Category": "Partners",
  "Activity": "Partner Recruitment",
  "Description": "All time spent recruiting partners - all activity until the point they sign the partner agreement",
  "Assignment": "Partner",
  "Mapped from": "Partner Recruitment; SI Recruitment",
  "tags": "t20,t19"
},
{
  "Priority": 12,
  "Group": "Presales",
  "Category": "Partners",
  "Activity": "Partner Opportunity Support",
  "Description": "Supporting a Partner on a specific opportunity (NOTE: available in both Customer/Partner sections)",
  "Assignment": "Opportunity",
  "Mapped from": "Partner/SI/OEM Opportunity Support",
  "tags": "t20,t19"
},
{
  "Priority": 13,
  "Group": "Presales",
  "Category": "Partners",
  "Activity": "Travel - Partner",
  "Description": "Travel to a partner meeting, or a prep meeting related to partner. ",
  "Assignment": "Partner",
  "Mapped from": "Travel; Travel - Partner/SI/OEM",
  "tags": "t39,t40,t41"
},
{
  "Priority": 14,
  "Group": "Presales",
  "Category": "Partners",
  "Activity": "Partner Preparation/Content Creation",
  "Description": "Time spent preparing for a partner meeting or follow up activities. May also include partner content creation for one or more partners.",
  "Assignment": "None",
  "Mapped from": "Content Creation for Partners",
  "tags": "t10,t42"
},
{
  "Priority": 15,
  "Group": "Presales",
  "Category": "Partners",
  "Activity": "Partner Support and Escalation",
  "Description": "Use this to capture any time spent on partner support issues or escalations. Do not use for Customer specific Support or Escalations, use General Post Sales Actitivies instead.",
  "Assignment": "Account or Opportunity",
  "Mapped from": "Technical Support and Escalation",
  "tags": "t37,t38"
},
{
  "Priority": 16,
  "Group": "Presales",
  "Category": "Internal",
  "Activity": "Marketing Support",
  "Description": "Planning, preparation, content creation, and participation in marketing events, trade shows, Academic Program, and CSR activities.",
  "Assignment": "None",
  "Mapped from": "Marketing Support; Solution Profile",
  "tags": "t67,t43,t44"
},
{
  "Priority": 17,
  "Group": "Presales",
  "Category": "Internal",
  "Activity": "Multiple Account Planning",
  "Description": "Internal territory planning, account reviews, or opportunity planning activities which cover more than one account or opportunity.",
  "Assignment": "None",
  "Mapped from": "Territory Planning; Account Planning (Multi)",
  "tags": "t45,t33,t46"
},
{
  "Priority": 18,
  "Group": "Presales",
  "Category": "Internal",
  "Activity": "Delivering Internal Training / Enablement",
  "Description": "Delivery or preparation time involved with internal training or enablement.",
  "Assignment": "None",
  "tags": "t6,t7"
},
{
  "Priority": 19,
  "Group": "Presales",
  "Category": "Internal",
  "Activity": "Receiving Internal Training",
  "Description": "Any time spent on personal development, or receiving internal training or enablement - Practize, classroom training, online training etc.  Includes certification activity.  Also use this for attending at external training or conferences where you are there to learn (as a delegate).  SKO also falls into this category.",
  "Assignment": "None",
  "Mapped from": "Personal Development",
  "tags": "t6,t7,t47,t48,t49,t50"
},
{
  "Priority": 20,
  "Group": "Presales",
  "Category": "Internal",
  "Activity": "Participating in Special Projects",
  "Description": "Being part of a special project - eg, demo build initiative, input into certification or workshops, SWAT teams, competitive initiatives etc",
  "Assignment": "None",
  "tags": "t51,t52"
},
{
  "Priority": 21,
  "Group": "Presales",
  "Category": "Internal",
  "Activity": "Content Development",
  "Description": "Work on creating mashups / extensions / demos / whitepapers for use by other team members, including newsletter and confluence content.  Also include any language translation effort here.",
  "Assignment": "None",
  "tags": "t20,t53,t54,t55,t56,t57"
},
{
  "Priority": 22,
  "Group": "Presales",
  "Category": "Internal",
  "Activity": "Product setup / testing / feedback",
  "Description": "Installing new products, creating VMs/QMIs, testing  new versions, feedback & ideation sessions with PM or R&D or Product Validation teams.  Also include time spent setting up QMI.",
  "Assignment": "None",
  "Mapped from": "Product Related",
  "tags": "t62,t64,t65,t66"
},
{
  "Priority": 23,
  "Group": "Presales",
  "Category": "Internal",
  "Activity": "Management",
  "Description": "Recruitment, People Development / Reviews, Forecast activities, and QBRs.",
  "Assignment": "None",
  "Mapped from": "Management; Territory Planning",
  "tags": "t5,t59,t60,t61,t45"
},
{
  "Priority": 24,
  "Group": "Presales",
  "Category": "Internal",
  "Activity": "Travel - Internal",
  "Description": "Travel to an office or training venue for an activity listed not assigned to an Account, Opportunity, or Partner.",
  "Assignment": "None",
  "Mapped from": "Travel",
  "tags": "t5,t63,t6"
},
{
  "Priority": 25,
  "Group": "Presales",
  "Category": "Internal",
  "Activity": "Internal Meetings",
  "Description": "Sales meetings, presales meetings, town halls etc.  Please do NOT assign general admin, SKO, enablement/training, or customer/partner work to this activity. ",
  "Assignment": "None",
  "Mapped from": "Internal Meetings; Meetings",
  "tags": "t68,t69,t70"
}]
